2013-07-30 09:53:10,549 INFO  [com.scansee.batch.process.EmailSubscriptionReportMain] (main) ***************************Email Subscription Repor Batch process started******************************************
2013-07-30 09:53:10,557 INFO  [com.scansee.batch.process.EmailSubscriptionReportMain] (main) Inside Main Method Process Start @:Tue Jul 30 09:53:10 IST 2013
2013-07-30 09:53:10,613 INFO  [com.scansee.batch.service.EmailSubscriptionReportServiceImpl] (main) In side method >>> sendEmailSubscriptionUsersList
2013-07-30 09:53:10,616 INFO  [com.scansee.batch.dao.EmailSubscriptionReportDAOImpl] (main) In side method >>> getEmailSubscribedUsersLists
2013-07-30 09:53:10,665 INFO  [org.springframework.jdbc.datasource.SingleConnectionDataSource] (main) Loaded JDBC driver: net.sourceforge.jtds.jdbc.Driver
2013-07-30 09:53:10,897 INFO  [org.springframework.jdbc.datasource.SingleConnectionDataSource] (main) Established shared JDBC Connection: net.sourceforge.jtds.jdbc.ConnectionJDBC3@6eb02efa
2013-07-30 09:53:10,932 WARN  [org.springframework.jdbc.core.metadata.CallMetaDataContext] (main) Unable to locate the corresponding parameter value for 'status' within the parameter values provided: []
2013-07-30 09:53:10,932 WARN  [org.springframework.jdbc.core.metadata.CallMetaDataContext] (main) Unable to locate the corresponding parameter value for 'errornumber' within the parameter values provided: []
2013-07-30 09:53:10,932 WARN  [org.springframework.jdbc.core.metadata.CallMetaDataContext] (main) Unable to locate the corresponding parameter value for 'errormessage' within the parameter values provided: []
2013-07-30 09:53:11,016 INFO  [com.scansee.batch.dao.EmailSubscriptionReportDAOImpl] (main)  Exiting method >>> getEmailSubscribedUsersLists
2013-07-30 09:53:12,954 INFO  [com.scansee.batch.service.EmailSubscriptionReportServiceImpl] (main) In side method >>> writeFileToFTP
2013-07-30 09:53:13,254 INFO  [com.scansee.batch.service.EmailSubscriptionReportServiceImpl] (main) In side method >>> getFTPConnection
2013-07-30 09:53:14,972 ERROR [com.scansee.batch.service.EmailSubscriptionReportServiceImpl] (main) Exception occcured in method:getFTPConnection
it.sauronsoftware.ftp4j.FTPException [code=220, message= Firewall Authentication required before proceeding with service]
2013-07-30 09:53:14,972 INFO  [com.scansee.batch.process.EmailSubscriptionReportMain] (main)  *Email Subscription Repor Batch process Ends  @:Tue Jul 30 09:53:14 IST 2013
2013-07-30 09:53:14,973 INFO  [com.scansee.batch.process.EmailSubscriptionReportMain] (main) ######################################################################
2013-07-30 09:54:21,776 INFO  [com.scansee.batch.process.EmailSubscriptionReportMain] (main) ***************************Email Subscription Repor Batch process started******************************************
2013-07-30 09:54:21,783 INFO  [com.scansee.batch.process.EmailSubscriptionReportMain] (main) Inside Main Method Process Start @:Tue Jul 30 09:54:21 IST 2013
2013-07-30 09:54:21,822 INFO  [com.scansee.batch.service.EmailSubscriptionReportServiceImpl] (main) In side method >>> sendEmailSubscriptionUsersList
2013-07-30 09:54:21,827 INFO  [com.scansee.batch.dao.EmailSubscriptionReportDAOImpl] (main) In side method >>> getEmailSubscribedUsersLists
2013-07-30 09:54:21,870 INFO  [org.springframework.jdbc.datasource.SingleConnectionDataSource] (main) Loaded JDBC driver: net.sourceforge.jtds.jdbc.Driver
2013-07-30 09:54:22,077 INFO  [org.springframework.jdbc.datasource.SingleConnectionDataSource] (main) Established shared JDBC Connection: net.sourceforge.jtds.jdbc.ConnectionJDBC3@6eb02efa
2013-07-30 09:54:22,112 WARN  [org.springframework.jdbc.core.metadata.CallMetaDataContext] (main) Unable to locate the corresponding parameter value for 'status' within the parameter values provided: []
2013-07-30 09:54:22,112 WARN  [org.springframework.jdbc.core.metadata.CallMetaDataContext] (main) Unable to locate the corresponding parameter value for 'errornumber' within the parameter values provided: []
2013-07-30 09:54:22,112 WARN  [org.springframework.jdbc.core.metadata.CallMetaDataContext] (main) Unable to locate the corresponding parameter value for 'errormessage' within the parameter values provided: []
2013-07-30 09:54:22,193 INFO  [com.scansee.batch.dao.EmailSubscriptionReportDAOImpl] (main)  Exiting method >>> getEmailSubscribedUsersLists
2013-07-30 09:54:24,269 INFO  [com.scansee.batch.service.EmailSubscriptionReportServiceImpl] (main) In side method >>> writeFileToFTP
2013-07-30 09:54:24,494 INFO  [com.scansee.batch.service.EmailSubscriptionReportServiceImpl] (main) In side method >>> getFTPConnection
2013-07-30 09:54:26,011 INFO  [com.scansee.batch.service.EmailSubscriptionReportServiceImpl] (main) ***FTP connection Established*****
2013-07-30 09:54:26,012 INFO  [com.scansee.batch.service.EmailSubscriptionReportServiceImpl] (main)  Exiting method >>> getFTPConnection
2013-07-30 09:54:29,043 INFO  [com.scansee.batch.service.EmailSubscriptionReportServiceImpl] (main)  Exiting method >>> writeFileToFTP
2013-07-30 09:54:29,043 INFO  [com.scansee.batch.common.Utility] (main) Inside Utility:formEmailBody
2013-07-30 09:54:29,043 INFO  [com.scansee.batch.common.Utility] (main) Exit Utility:formEmailBody
2013-07-30 09:54:29,043 INFO  [com.scansee.batch.service.EmailSubscriptionReportServiceImpl] (main) In side method >>> sendBatchProcessStatus
2013-07-30 09:54:29,053 INFO  [com.scansee.batch.dao.EmailSubscriptionReportDAOImpl] (main) In side method >>> getAppConfig
2013-07-30 09:54:29,053 INFO  [org.springframework.jdbc.datasource.SingleConnectionDataSource] (main) Loaded JDBC driver: net.sourceforge.jtds.jdbc.Driver
2013-07-30 09:54:29,068 INFO  [org.springframework.jdbc.datasource.SingleConnectionDataSource] (main) Established shared JDBC Connection: net.sourceforge.jtds.jdbc.ConnectionJDBC3@5f90a0d6
2013-07-30 09:54:29,082 WARN  [org.springframework.jdbc.core.metadata.CallMetaDataContext] (main) Unable to locate the corresponding parameter value for 'ErrorNumber' within the parameter values provided: [ConfigurationType]
2013-07-30 09:54:29,082 WARN  [org.springframework.jdbc.core.metadata.CallMetaDataContext] (main) Unable to locate the corresponding parameter value for 'ErrorMessage' within the parameter values provided: [ConfigurationType]
2013-07-30 09:54:29,086 INFO  [com.scansee.batch.dao.EmailSubscriptionReportDAOImpl] (main)  Exiting method >>> getAppConfig
2013-07-30 09:54:29,086 INFO  [com.scansee.batch.dao.EmailSubscriptionReportDAOImpl] (main) In side method >>> getAppConfig
2013-07-30 09:54:29,086 INFO  [org.springframework.jdbc.datasource.SingleConnectionDataSource] (main) Loaded JDBC driver: net.sourceforge.jtds.jdbc.Driver
2013-07-30 09:54:29,090 INFO  [org.springframework.jdbc.datasource.SingleConnectionDataSource] (main) Established shared JDBC Connection: net.sourceforge.jtds.jdbc.ConnectionJDBC3@13e4a47e
2013-07-30 09:54:29,103 WARN  [org.springframework.jdbc.core.metadata.CallMetaDataContext] (main) Unable to locate the corresponding parameter value for 'ErrorNumber' within the parameter values provided: [ConfigurationType]
2013-07-30 09:54:29,103 WARN  [org.springframework.jdbc.core.metadata.CallMetaDataContext] (main) Unable to locate the corresponding parameter value for 'ErrorMessage' within the parameter values provided: [ConfigurationType]
2013-07-30 09:54:29,105 INFO  [com.scansee.batch.dao.EmailSubscriptionReportDAOImpl] (main)  Exiting method >>> getAppConfig
2013-07-30 09:54:29,105 INFO  [com.scansee.batch.common.pojos.EmailComponent] (main) Inside EmailComponent: multipleUsersmailingComponent
2013-07-30 09:54:29,194 ERROR [com.scansee.batch.service.EmailSubscriptionReportServiceImpl] (main) Exception occcured in method:sendBatchProcessStatus
javax.mail.MessagingException: Could not connect to SMTP host: imail.spanservices.com, port: 25;
  nested exception is:
	java.net.SocketException: Permission denied: connect
2013-07-30 09:54:29,194 INFO  [com.scansee.batch.process.EmailSubscriptionReportMain] (main)  *Email Subscription Repor Batch process Ends  @:Tue Jul 30 09:54:29 IST 2013
2013-07-30 09:54:29,194 INFO  [com.scansee.batch.process.EmailSubscriptionReportMain] (main) ######################################################################
2013-07-30 14:16:59,774 INFO  [com.scansee.batch.process.EmailSubscriptionReportMain] (main) ***************************Email Subscription Repor Batch process started******************************************
2013-07-30 14:16:59,778 INFO  [com.scansee.batch.process.EmailSubscriptionReportMain] (main) Inside Main Method Process Start @:Tue Jul 30 14:16:59 IST 2013
2013-07-30 14:16:59,814 INFO  [com.scansee.batch.service.EmailSubscriptionReportServiceImpl] (main) In side method >>> sendEmailSubscriptionUsersList
2013-07-30 14:16:59,822 INFO  [com.scansee.batch.dao.EmailSubscriptionReportDAOImpl] (main) In side method >>> getEmailSubscribedUsersLists
2013-07-30 14:16:59,864 INFO  [org.springframework.jdbc.datasource.SingleConnectionDataSource] (main) Loaded JDBC driver: net.sourceforge.jtds.jdbc.Driver
2013-07-30 14:17:00,261 INFO  [org.springframework.jdbc.datasource.SingleConnectionDataSource] (main) Established shared JDBC Connection: net.sourceforge.jtds.jdbc.ConnectionJDBC3@70dc57db
2013-07-30 14:17:00,300 WARN  [org.springframework.jdbc.core.metadata.CallMetaDataContext] (main) Unable to locate the corresponding parameter value for 'status' within the parameter values provided: []
2013-07-30 14:17:00,300 WARN  [org.springframework.jdbc.core.metadata.CallMetaDataContext] (main) Unable to locate the corresponding parameter value for 'errornumber' within the parameter values provided: []
2013-07-30 14:17:00,300 WARN  [org.springframework.jdbc.core.metadata.CallMetaDataContext] (main) Unable to locate the corresponding parameter value for 'errormessage' within the parameter values provided: []
2013-07-30 14:17:00,420 INFO  [com.scansee.batch.dao.EmailSubscriptionReportDAOImpl] (main)  Exiting method >>> getEmailSubscribedUsersLists
2013-07-30 14:17:04,283 INFO  [com.scansee.batch.service.EmailSubscriptionReportServiceImpl] (main) In side method >>> writeFileToFTP
2013-07-30 14:17:05,499 INFO  [com.scansee.batch.service.EmailSubscriptionReportServiceImpl] (main) In side method >>> getFTPConnection
2013-07-30 14:17:06,993 INFO  [com.scansee.batch.service.EmailSubscriptionReportServiceImpl] (main) ***FTP connection Established*****
2013-07-30 14:17:06,993 INFO  [com.scansee.batch.service.EmailSubscriptionReportServiceImpl] (main)  Exiting method >>> getFTPConnection
2013-07-30 14:17:10,003 INFO  [com.scansee.batch.service.EmailSubscriptionReportServiceImpl] (main)  Exiting method >>> writeFileToFTP
2013-07-30 14:17:10,003 INFO  [com.scansee.batch.common.Utility] (main) Inside Utility:formEmailBody
2013-07-30 14:17:10,003 INFO  [com.scansee.batch.common.Utility] (main) Exit Utility:formEmailBody
2013-07-30 14:17:10,004 INFO  [com.scansee.batch.service.EmailSubscriptionReportServiceImpl] (main) In side method >>> sendBatchProcessStatus
2013-07-30 14:17:10,035 INFO  [com.scansee.batch.dao.EmailSubscriptionReportDAOImpl] (main) In side method >>> getAppConfig
2013-07-30 14:17:10,035 INFO  [org.springframework.jdbc.datasource.SingleConnectionDataSource] (main) Loaded JDBC driver: net.sourceforge.jtds.jdbc.Driver
2013-07-30 14:17:10,057 INFO  [org.springframework.jdbc.datasource.SingleConnectionDataSource] (main) Established shared JDBC Connection: net.sourceforge.jtds.jdbc.ConnectionJDBC3@427be8c2
2013-07-30 14:17:10,073 WARN  [org.springframework.jdbc.core.metadata.CallMetaDataContext] (main) Unable to locate the corresponding parameter value for 'ErrorNumber' within the parameter values provided: [ConfigurationType]
2013-07-30 14:17:10,073 WARN  [org.springframework.jdbc.core.metadata.CallMetaDataContext] (main) Unable to locate the corresponding parameter value for 'ErrorMessage' within the parameter values provided: [ConfigurationType]
2013-07-30 14:17:10,080 INFO  [com.scansee.batch.dao.EmailSubscriptionReportDAOImpl] (main)  Exiting method >>> getAppConfig
2013-07-30 14:17:10,080 INFO  [com.scansee.batch.dao.EmailSubscriptionReportDAOImpl] (main) In side method >>> getAppConfig
2013-07-30 14:17:10,080 INFO  [org.springframework.jdbc.datasource.SingleConnectionDataSource] (main) Loaded JDBC driver: net.sourceforge.jtds.jdbc.Driver
2013-07-30 14:17:10,085 INFO  [org.springframework.jdbc.datasource.SingleConnectionDataSource] (main) Established shared JDBC Connection: net.sourceforge.jtds.jdbc.ConnectionJDBC3@301db5ec
2013-07-30 14:17:10,099 WARN  [org.springframework.jdbc.core.metadata.CallMetaDataContext] (main) Unable to locate the corresponding parameter value for 'ErrorNumber' within the parameter values provided: [ConfigurationType]
2013-07-30 14:17:10,100 WARN  [org.springframework.jdbc.core.metadata.CallMetaDataContext] (main) Unable to locate the corresponding parameter value for 'ErrorMessage' within the parameter values provided: [ConfigurationType]
2013-07-30 14:17:10,101 INFO  [com.scansee.batch.dao.EmailSubscriptionReportDAOImpl] (main)  Exiting method >>> getAppConfig
2013-07-30 14:17:10,101 INFO  [com.scansee.batch.common.pojos.EmailComponent] (main) Inside EmailComponent: multipleUsersmailingComponent
2013-07-30 14:17:10,362 ERROR [com.scansee.batch.service.EmailSubscriptionReportServiceImpl] (main) Exception occcured in method:sendBatchProcessStatus
javax.mail.MessagingException: Could not connect to SMTP host: imail.spanservices.com, port: 25;
  nested exception is:
	java.net.SocketException: Permission denied: connect
2013-07-30 14:17:10,362 INFO  [com.scansee.batch.process.EmailSubscriptionReportMain] (main)  *Email Subscription Repor Batch process Ends  @:Tue Jul 30 14:17:10 IST 2013
2013-07-30 14:17:10,363 INFO  [com.scansee.batch.process.EmailSubscriptionReportMain] (main) ######################################################################
2013-07-30 14:34:59,370 INFO  [com.scansee.batch.process.EmailSubscriptionReportMain] (main) ***************************Email Subscription Repor Batch process started******************************************
2013-07-30 14:34:59,574 INFO  [com.scansee.batch.process.EmailSubscriptionReportMain] (main) Inside Main Method Process Start @:Tue Jul 30 14:34:59 IST 2013
2013-07-30 14:35:00,715 INFO  [com.scansee.batch.service.EmailSubscriptionReportServiceImpl] (main) In side method >>> sendEmailSubscriptionUsersList
2013-07-30 14:35:00,809 INFO  [com.scansee.batch.dao.EmailSubscriptionReportDAOImpl] (main) In side method >>> getEmailSubscribedUsersLists
2013-07-30 14:35:02,669 INFO  [org.springframework.jdbc.datasource.SingleConnectionDataSource] (main) Loaded JDBC driver: net.sourceforge.jtds.jdbc.Driver
2013-07-30 14:35:07,296 INFO  [org.springframework.jdbc.datasource.SingleConnectionDataSource] (main) Established shared JDBC Connection: net.sourceforge.jtds.jdbc.ConnectionJDBC3@70dc57db
2013-07-30 14:35:07,343 WARN  [org.springframework.jdbc.core.metadata.CallMetaDataContext] (main) Unable to locate the corresponding parameter value for 'status' within the parameter values provided: []
2013-07-30 14:35:07,343 WARN  [org.springframework.jdbc.core.metadata.CallMetaDataContext] (main) Unable to locate the corresponding parameter value for 'errornumber' within the parameter values provided: []
2013-07-30 14:35:07,343 WARN  [org.springframework.jdbc.core.metadata.CallMetaDataContext] (main) Unable to locate the corresponding parameter value for 'errormessage' within the parameter values provided: []
2013-07-30 14:35:08,187 INFO  [com.scansee.batch.dao.EmailSubscriptionReportDAOImpl] (main)  Exiting method >>> getEmailSubscribedUsersLists
2013-07-30 14:35:14,533 INFO  [com.scansee.batch.service.EmailSubscriptionReportServiceImpl] (main) In side method >>> writeFileToFTP
2013-07-30 14:35:14,892 INFO  [com.scansee.batch.service.EmailSubscriptionReportServiceImpl] (main) In side method >>> getFTPConnection
2013-07-30 14:35:16,533 INFO  [com.scansee.batch.service.EmailSubscriptionReportServiceImpl] (main) ***FTP connection Established*****
2013-07-30 14:35:16,533 INFO  [com.scansee.batch.service.EmailSubscriptionReportServiceImpl] (main)  Exiting method >>> getFTPConnection
2013-07-30 14:35:19,847 INFO  [com.scansee.batch.service.EmailSubscriptionReportServiceImpl] (main)  Exiting method >>> writeFileToFTP
2013-07-30 14:35:19,847 INFO  [com.scansee.batch.common.Utility] (main) Inside Utility:formEmailBody
2013-07-30 14:35:19,847 INFO  [com.scansee.batch.common.Utility] (main) Exit Utility:formEmailBody
2013-07-30 14:35:19,847 INFO  [com.scansee.batch.service.EmailSubscriptionReportServiceImpl] (main) In side method >>> sendBatchProcessStatus
2013-07-30 14:35:19,925 INFO  [com.scansee.batch.dao.EmailSubscriptionReportDAOImpl] (main) In side method >>> getAppConfig
2013-07-30 14:35:19,925 INFO  [org.springframework.jdbc.datasource.SingleConnectionDataSource] (main) Loaded JDBC driver: net.sourceforge.jtds.jdbc.Driver
2013-07-30 14:35:19,972 INFO  [org.springframework.jdbc.datasource.SingleConnectionDataSource] (main) Established shared JDBC Connection: net.sourceforge.jtds.jdbc.ConnectionJDBC3@435bb0f
2013-07-30 14:35:19,988 WARN  [org.springframework.jdbc.core.metadata.CallMetaDataContext] (main) Unable to locate the corresponding parameter value for 'ErrorNumber' within the parameter values provided: [ConfigurationType]
2013-07-30 14:35:19,988 WARN  [org.springframework.jdbc.core.metadata.CallMetaDataContext] (main) Unable to locate the corresponding parameter value for 'ErrorMessage' within the parameter values provided: [ConfigurationType]
2013-07-30 14:35:20,019 INFO  [com.scansee.batch.dao.EmailSubscriptionReportDAOImpl] (main)  Exiting method >>> getAppConfig
2013-07-30 14:35:20,019 INFO  [com.scansee.batch.dao.EmailSubscriptionReportDAOImpl] (main) In side method >>> getAppConfig
2013-07-30 14:35:20,019 INFO  [org.springframework.jdbc.datasource.SingleConnectionDataSource] (main) Loaded JDBC driver: net.sourceforge.jtds.jdbc.Driver
2013-07-30 14:35:20,019 INFO  [org.springframework.jdbc.datasource.SingleConnectionDataSource] (main) Established shared JDBC Connection: net.sourceforge.jtds.jdbc.ConnectionJDBC3@128ae45a
2013-07-30 14:35:20,034 WARN  [org.springframework.jdbc.core.metadata.CallMetaDataContext] (main) Unable to locate the corresponding parameter value for 'ErrorNumber' within the parameter values provided: [ConfigurationType]
2013-07-30 14:35:20,034 WARN  [org.springframework.jdbc.core.metadata.CallMetaDataContext] (main) Unable to locate the corresponding parameter value for 'ErrorMessage' within the parameter values provided: [ConfigurationType]
2013-07-30 14:35:20,034 INFO  [com.scansee.batch.dao.EmailSubscriptionReportDAOImpl] (main)  Exiting method >>> getAppConfig
2013-07-30 14:35:20,034 INFO  [com.scansee.batch.common.pojos.EmailComponent] (main) Inside EmailComponent: multipleUsersmailingComponent
2013-07-30 14:35:30,100 INFO  [com.scansee.batch.common.pojos.EmailComponent] (main) Mail Sent successfully
2013-07-30 14:35:30,100 INFO  [com.scansee.batch.common.pojos.EmailComponent] (main) Exit EmailComponent: multipleUsersmailingComponent
2013-07-30 14:35:30,100 INFO  [com.scansee.batch.service.EmailSubscriptionReportServiceImpl] (main)  Exiting method >>> sendBatchProcessStatus
2013-07-30 14:35:30,100 INFO  [com.scansee.batch.service.EmailSubscriptionReportServiceImpl] (main)  Exiting method >>> sendEmailSubscriptionUsersList
2013-07-30 14:35:30,100 INFO  [com.scansee.batch.process.EmailSubscriptionReportMain] (main)  *Email Subscription Repor Batch process Ends  @:Tue Jul 30 14:35:30 IST 2013
2013-07-30 14:35:30,100 INFO  [com.scansee.batch.process.EmailSubscriptionReportMain] (main) ######################################################################
2013-07-30 14:37:59,777 INFO  [com.scansee.batch.process.EmailSubscriptionReportMain] (main) ***************************Email Subscription Repor Batch process started******************************************
2013-07-30 14:37:59,793 INFO  [com.scansee.batch.process.EmailSubscriptionReportMain] (main) Inside Main Method Process Start @:Tue Jul 30 14:37:59 IST 2013
2013-07-30 14:37:59,808 INFO  [com.scansee.batch.service.EmailSubscriptionReportServiceImpl] (main) In side method >>> sendEmailSubscriptionUsersList
2013-07-30 14:37:59,824 INFO  [com.scansee.batch.dao.EmailSubscriptionReportDAOImpl] (main) In side method >>> getEmailSubscribedUsersLists
2013-07-30 14:37:59,855 INFO  [org.springframework.jdbc.datasource.SingleConnectionDataSource] (main) Loaded JDBC driver: net.sourceforge.jtds.jdbc.Driver
2013-07-30 14:38:00,043 INFO  [org.springframework.jdbc.datasource.SingleConnectionDataSource] (main) Established shared JDBC Connection: net.sourceforge.jtds.jdbc.ConnectionJDBC3@70dc57db
2013-07-30 14:38:00,137 WARN  [org.springframework.jdbc.core.metadata.CallMetaDataContext] (main) Unable to locate the corresponding parameter value for 'status' within the parameter values provided: []
2013-07-30 14:38:00,137 WARN  [org.springframework.jdbc.core.metadata.CallMetaDataContext] (main) Unable to locate the corresponding parameter value for 'errornumber' within the parameter values provided: []
2013-07-30 14:38:00,137 WARN  [org.springframework.jdbc.core.metadata.CallMetaDataContext] (main) Unable to locate the corresponding parameter value for 'errormessage' within the parameter values provided: []
2013-07-30 14:38:00,246 INFO  [com.scansee.batch.dao.EmailSubscriptionReportDAOImpl] (main)  Exiting method >>> getEmailSubscribedUsersLists
2013-07-30 14:38:01,903 INFO  [com.scansee.batch.service.EmailSubscriptionReportServiceImpl] (main) In side method >>> writeFileToFTP
2013-07-30 14:38:02,247 INFO  [com.scansee.batch.service.EmailSubscriptionReportServiceImpl] (main) In side method >>> getFTPConnection
2013-07-30 14:38:03,763 INFO  [com.scansee.batch.service.EmailSubscriptionReportServiceImpl] (main) ***FTP connection Established*****
2013-07-30 14:38:03,763 INFO  [com.scansee.batch.service.EmailSubscriptionReportServiceImpl] (main)  Exiting method >>> getFTPConnection
2013-07-30 14:38:04,263 ERROR [com.scansee.batch.service.EmailSubscriptionReportServiceImpl] (main) Exception occcured in method:writeFileToFTP
it.sauronsoftware.ftp4j.FTPException [code=550, message= Directory already exists]
2013-07-30 14:38:04,513 INFO  [com.scansee.batch.process.EmailSubscriptionReportMain] (main)  *Email Subscription Repor Batch process Ends  @:Tue Jul 30 14:38:04 IST 2013
2013-07-30 14:38:04,513 INFO  [com.scansee.batch.process.EmailSubscriptionReportMain] (main) ######################################################################
2013-07-30 14:38:30,428 INFO  [com.scansee.batch.process.EmailSubscriptionReportMain] (main) ***************************Email Subscription Repor Batch process started******************************************
2013-07-30 14:38:30,428 INFO  [com.scansee.batch.process.EmailSubscriptionReportMain] (main) Inside Main Method Process Start @:Tue Jul 30 14:38:30 IST 2013
2013-07-30 14:38:30,475 INFO  [com.scansee.batch.service.EmailSubscriptionReportServiceImpl] (main) In side method >>> sendEmailSubscriptionUsersList
2013-07-30 14:38:30,475 INFO  [com.scansee.batch.dao.EmailSubscriptionReportDAOImpl] (main) In side method >>> getEmailSubscribedUsersLists
2013-07-30 14:38:30,522 INFO  [org.springframework.jdbc.datasource.SingleConnectionDataSource] (main) Loaded JDBC driver: net.sourceforge.jtds.jdbc.Driver
2013-07-30 14:38:30,710 INFO  [org.springframework.jdbc.datasource.SingleConnectionDataSource] (main) Established shared JDBC Connection: net.sourceforge.jtds.jdbc.ConnectionJDBC3@6eb02efa
2013-07-30 14:38:30,741 WARN  [org.springframework.jdbc.core.metadata.CallMetaDataContext] (main) Unable to locate the corresponding parameter value for 'status' within the parameter values provided: []
2013-07-30 14:38:30,741 WARN  [org.springframework.jdbc.core.metadata.CallMetaDataContext] (main) Unable to locate the corresponding parameter value for 'errornumber' within the parameter values provided: []
2013-07-30 14:38:30,741 WARN  [org.springframework.jdbc.core.metadata.CallMetaDataContext] (main) Unable to locate the corresponding parameter value for 'errormessage' within the parameter values provided: []
2013-07-30 14:38:30,819 INFO  [com.scansee.batch.dao.EmailSubscriptionReportDAOImpl] (main)  Exiting method >>> getEmailSubscribedUsersLists
2013-07-30 14:38:32,476 INFO  [com.scansee.batch.service.EmailSubscriptionReportServiceImpl] (main) In side method >>> writeFileToFTP
2013-07-30 14:38:32,914 INFO  [com.scansee.batch.service.EmailSubscriptionReportServiceImpl] (main) In side method >>> getFTPConnection
2013-07-30 14:38:34,492 INFO  [com.scansee.batch.service.EmailSubscriptionReportServiceImpl] (main) ***FTP connection Established*****
2013-07-30 14:38:34,492 INFO  [com.scansee.batch.service.EmailSubscriptionReportServiceImpl] (main)  Exiting method >>> getFTPConnection
2013-07-30 14:38:38,603 INFO  [com.scansee.batch.service.EmailSubscriptionReportServiceImpl] (main)  Exiting method >>> writeFileToFTP
2013-07-30 14:38:38,603 INFO  [com.scansee.batch.common.Utility] (main) Inside Utility:formEmailBody
2013-07-30 14:38:38,603 INFO  [com.scansee.batch.common.Utility] (main) Exit Utility:formEmailBody
2013-07-30 14:38:38,603 INFO  [com.scansee.batch.service.EmailSubscriptionReportServiceImpl] (main) In side method >>> sendBatchProcessStatus
2013-07-30 14:38:38,619 INFO  [com.scansee.batch.dao.EmailSubscriptionReportDAOImpl] (main) In side method >>> getAppConfig
2013-07-30 14:38:38,619 INFO  [org.springframework.jdbc.datasource.SingleConnectionDataSource] (main) Loaded JDBC driver: net.sourceforge.jtds.jdbc.Driver
2013-07-30 14:38:38,634 INFO  [org.springframework.jdbc.datasource.SingleConnectionDataSource] (main) Established shared JDBC Connection: net.sourceforge.jtds.jdbc.ConnectionJDBC3@5f90a0d6
2013-07-30 14:38:38,650 WARN  [org.springframework.jdbc.core.metadata.CallMetaDataContext] (main) Unable to locate the corresponding parameter value for 'ErrorNumber' within the parameter values provided: [ConfigurationType]
2013-07-30 14:38:38,650 WARN  [org.springframework.jdbc.core.metadata.CallMetaDataContext] (main) Unable to locate the corresponding parameter value for 'ErrorMessage' within the parameter values provided: [ConfigurationType]
2013-07-30 14:38:38,650 INFO  [com.scansee.batch.dao.EmailSubscriptionReportDAOImpl] (main)  Exiting method >>> getAppConfig
2013-07-30 14:38:38,650 INFO  [com.scansee.batch.dao.EmailSubscriptionReportDAOImpl] (main) In side method >>> getAppConfig
2013-07-30 14:38:38,650 INFO  [org.springframework.jdbc.datasource.SingleConnectionDataSource] (main) Loaded JDBC driver: net.sourceforge.jtds.jdbc.Driver
2013-07-30 14:38:38,650 INFO  [org.springframework.jdbc.datasource.SingleConnectionDataSource] (main) Established shared JDBC Connection: net.sourceforge.jtds.jdbc.ConnectionJDBC3@13e4a47e
2013-07-30 14:38:38,666 WARN  [org.springframework.jdbc.core.metadata.CallMetaDataContext] (main) Unable to locate the corresponding parameter value for 'ErrorNumber' within the parameter values provided: [ConfigurationType]
2013-07-30 14:38:38,666 WARN  [org.springframework.jdbc.core.metadata.CallMetaDataContext] (main) Unable to locate the corresponding parameter value for 'ErrorMessage' within the parameter values provided: [ConfigurationType]
2013-07-30 14:38:38,681 INFO  [com.scansee.batch.dao.EmailSubscriptionReportDAOImpl] (main)  Exiting method >>> getAppConfig
2013-07-30 14:38:38,681 INFO  [com.scansee.batch.common.pojos.EmailComponent] (main) Inside EmailComponent: multipleUsersmailingComponent
2013-07-30 14:38:47,981 INFO  [com.scansee.batch.common.pojos.EmailComponent] (main) Mail Sent successfully
2013-07-30 14:38:47,981 INFO  [com.scansee.batch.common.pojos.EmailComponent] (main) Exit EmailComponent: multipleUsersmailingComponent
2013-07-30 14:38:47,981 INFO  [com.scansee.batch.service.EmailSubscriptionReportServiceImpl] (main)  Exiting method >>> sendBatchProcessStatus
2013-07-30 14:38:47,981 INFO  [com.scansee.batch.service.EmailSubscriptionReportServiceImpl] (main)  Exiting method >>> sendEmailSubscriptionUsersList
2013-07-30 14:38:47,981 INFO  [com.scansee.batch.process.EmailSubscriptionReportMain] (main)  *Email Subscription Repor Batch process Ends  @:Tue Jul 30 14:38:47 IST 2013
2013-07-30 14:38:47,981 INFO  [com.scansee.batch.process.EmailSubscriptionReportMain] (main) ######################################################################
2013-07-30 14:41:51,326 INFO  [com.scansee.batch.process.EmailSubscriptionReportMain] (main) ***************************Email Subscription Repor Batch process started******************************************
2013-07-30 14:41:51,326 INFO  [com.scansee.batch.process.EmailSubscriptionReportMain] (main) Inside Main Method Process Start @:Tue Jul 30 14:41:51 IST 2013
2013-07-30 14:41:51,373 INFO  [com.scansee.batch.service.EmailSubscriptionReportServiceImpl] (main) In side method >>> sendEmailSubscriptionUsersList
2013-07-30 14:41:51,373 INFO  [com.scansee.batch.dao.EmailSubscriptionReportDAOImpl] (main) In side method >>> getEmailSubscribedUsersLists
2013-07-30 14:41:51,404 INFO  [org.springframework.jdbc.datasource.SingleConnectionDataSource] (main) Loaded JDBC driver: net.sourceforge.jtds.jdbc.Driver
2013-07-30 14:41:51,608 INFO  [org.springframework.jdbc.datasource.SingleConnectionDataSource] (main) Established shared JDBC Connection: net.sourceforge.jtds.jdbc.ConnectionJDBC3@6eb02efa
2013-07-30 14:41:51,639 WARN  [org.springframework.jdbc.core.metadata.CallMetaDataContext] (main) Unable to locate the corresponding parameter value for 'status' within the parameter values provided: []
2013-07-30 14:41:51,639 WARN  [org.springframework.jdbc.core.metadata.CallMetaDataContext] (main) Unable to locate the corresponding parameter value for 'errornumber' within the parameter values provided: []
2013-07-30 14:41:51,639 WARN  [org.springframework.jdbc.core.metadata.CallMetaDataContext] (main) Unable to locate the corresponding parameter value for 'errormessage' within the parameter values provided: []
2013-07-30 14:41:51,717 INFO  [com.scansee.batch.dao.EmailSubscriptionReportDAOImpl] (main)  Exiting method >>> getEmailSubscribedUsersLists
2013-07-30 14:41:53,389 INFO  [com.scansee.batch.service.EmailSubscriptionReportServiceImpl] (main) In side method >>> writeFileToFTP
2013-07-30 14:41:53,858 INFO  [com.scansee.batch.service.EmailSubscriptionReportServiceImpl] (main) In side method >>> getFTPConnection
2013-07-30 14:41:55,483 INFO  [com.scansee.batch.service.EmailSubscriptionReportServiceImpl] (main) ***FTP connection Established*****
2013-07-30 14:41:55,483 INFO  [com.scansee.batch.service.EmailSubscriptionReportServiceImpl] (main)  Exiting method >>> getFTPConnection
2013-07-30 14:41:59,593 INFO  [com.scansee.batch.service.EmailSubscriptionReportServiceImpl] (main)  Exiting method >>> writeFileToFTP
2013-07-30 14:41:59,593 INFO  [com.scansee.batch.common.Utility] (main) Inside Utility:formEmailBody
2013-07-30 14:41:59,593 INFO  [com.scansee.batch.common.Utility] (main) Exit Utility:formEmailBody
2013-07-30 14:41:59,593 INFO  [com.scansee.batch.service.EmailSubscriptionReportServiceImpl] (main) In side method >>> sendBatchProcessStatus
2013-07-30 14:41:59,609 INFO  [com.scansee.batch.dao.EmailSubscriptionReportDAOImpl] (main) In side method >>> getAppConfig
2013-07-30 14:41:59,609 INFO  [org.springframework.jdbc.datasource.SingleConnectionDataSource] (main) Loaded JDBC driver: net.sourceforge.jtds.jdbc.Driver
2013-07-30 14:41:59,624 INFO  [org.springframework.jdbc.datasource.SingleConnectionDataSource] (main) Established shared JDBC Connection: net.sourceforge.jtds.jdbc.ConnectionJDBC3@3c3a1834
2013-07-30 14:41:59,640 WARN  [org.springframework.jdbc.core.metadata.CallMetaDataContext] (main) Unable to locate the corresponding parameter value for 'ErrorNumber' within the parameter values provided: [ConfigurationType]
2013-07-30 14:41:59,640 WARN  [org.springframework.jdbc.core.metadata.CallMetaDataContext] (main) Unable to locate the corresponding parameter value for 'ErrorMessage' within the parameter values provided: [ConfigurationType]
2013-07-30 14:41:59,640 INFO  [com.scansee.batch.dao.EmailSubscriptionReportDAOImpl] (main)  Exiting method >>> getAppConfig
2013-07-30 14:41:59,640 INFO  [com.scansee.batch.dao.EmailSubscriptionReportDAOImpl] (main) In side method >>> getAppConfig
2013-07-30 14:41:59,640 INFO  [org.springframework.jdbc.datasource.SingleConnectionDataSource] (main) Loaded JDBC driver: net.sourceforge.jtds.jdbc.Driver
2013-07-30 14:41:59,640 INFO  [org.springframework.jdbc.datasource.SingleConnectionDataSource] (main) Established shared JDBC Connection: net.sourceforge.jtds.jdbc.ConnectionJDBC3@54671f95
2013-07-30 14:41:59,655 WARN  [org.springframework.jdbc.core.metadata.CallMetaDataContext] (main) Unable to locate the corresponding parameter value for 'ErrorNumber' within the parameter values provided: [ConfigurationType]
2013-07-30 14:41:59,655 WARN  [org.springframework.jdbc.core.metadata.CallMetaDataContext] (main) Unable to locate the corresponding parameter value for 'ErrorMessage' within the parameter values provided: [ConfigurationType]
2013-07-30 14:41:59,655 INFO  [com.scansee.batch.dao.EmailSubscriptionReportDAOImpl] (main)  Exiting method >>> getAppConfig
2013-07-30 14:41:59,655 INFO  [com.scansee.batch.common.pojos.EmailComponent] (main) Inside EmailComponent: multipleUsersmailingComponent
2013-07-30 14:42:08,969 INFO  [com.scansee.batch.common.pojos.EmailComponent] (main) Mail Sent successfully
2013-07-30 14:42:08,969 INFO  [com.scansee.batch.common.pojos.EmailComponent] (main) Exit EmailComponent: multipleUsersmailingComponent
2013-07-30 14:42:08,969 INFO  [com.scansee.batch.service.EmailSubscriptionReportServiceImpl] (main)  Exiting method >>> sendBatchProcessStatus
2013-07-30 14:42:08,969 INFO  [com.scansee.batch.service.EmailSubscriptionReportServiceImpl] (main)  Exiting method >>> sendEmailSubscriptionUsersList
2013-07-30 14:42:08,969 INFO  [com.scansee.batch.process.EmailSubscriptionReportMain] (main)  *Email Subscription Repor Batch process Ends  @:Tue Jul 30 14:42:08 IST 2013
2013-07-30 14:42:08,969 INFO  [com.scansee.batch.process.EmailSubscriptionReportMain] (main) ######################################################################
2013-07-30 14:48:50,590 INFO  [com.scansee.batch.process.EmailSubscriptionReportMain] (main) ***************************Email Subscription Repor Batch process started******************************************
2013-07-30 14:48:50,590 INFO  [com.scansee.batch.process.EmailSubscriptionReportMain] (main) Inside Main Method Process Start @:Tue Jul 30 14:48:50 IST 2013
2013-07-30 14:48:50,637 INFO  [com.scansee.batch.service.EmailSubscriptionReportServiceImpl] (main) In side method >>> sendEmailSubscriptionUsersList
2013-07-30 14:48:50,637 INFO  [com.scansee.batch.dao.EmailSubscriptionReportDAOImpl] (main) In side method >>> getEmailSubscribedUsersLists
2013-07-30 14:48:50,684 INFO  [org.springframework.jdbc.datasource.SingleConnectionDataSource] (main) Loaded JDBC driver: net.sourceforge.jtds.jdbc.Driver
2013-07-30 14:48:50,871 INFO  [org.springframework.jdbc.datasource.SingleConnectionDataSource] (main) Established shared JDBC Connection: net.sourceforge.jtds.jdbc.ConnectionJDBC3@70dc57db
2013-07-30 14:48:50,902 WARN  [org.springframework.jdbc.core.metadata.CallMetaDataContext] (main) Unable to locate the corresponding parameter value for 'status' within the parameter values provided: []
2013-07-30 14:48:50,902 WARN  [org.springframework.jdbc.core.metadata.CallMetaDataContext] (main) Unable to locate the corresponding parameter value for 'errornumber' within the parameter values provided: []
2013-07-30 14:48:50,902 WARN  [org.springframework.jdbc.core.metadata.CallMetaDataContext] (main) Unable to locate the corresponding parameter value for 'errormessage' within the parameter values provided: []
2013-07-30 14:48:50,980 INFO  [com.scansee.batch.dao.EmailSubscriptionReportDAOImpl] (main)  Exiting method >>> getEmailSubscribedUsersLists
2013-07-30 14:48:52,885 INFO  [com.scansee.batch.service.EmailSubscriptionReportServiceImpl] (main) In side method >>> writeFileToFTP
2013-07-30 14:48:53,182 INFO  [com.scansee.batch.service.EmailSubscriptionReportServiceImpl] (main) In side method >>> getFTPConnection
2013-07-30 14:48:54,759 INFO  [com.scansee.batch.service.EmailSubscriptionReportServiceImpl] (main) ***FTP connection Established*****
2013-07-30 14:48:54,759 INFO  [com.scansee.batch.service.EmailSubscriptionReportServiceImpl] (main)  Exiting method >>> getFTPConnection
2013-07-30 14:48:57,897 INFO  [com.scansee.batch.service.EmailSubscriptionReportServiceImpl] (main)  Exiting method >>> writeFileToFTP
2013-07-30 14:48:57,897 INFO  [com.scansee.batch.common.Utility] (main) Inside Utility:formEmailBody
2013-07-30 14:48:57,897 INFO  [com.scansee.batch.common.Utility] (main) Exit Utility:formEmailBody
2013-07-30 14:48:57,897 INFO  [com.scansee.batch.service.EmailSubscriptionReportServiceImpl] (main) In side method >>> sendBatchProcessStatus
2013-07-30 14:48:57,913 INFO  [com.scansee.batch.dao.EmailSubscriptionReportDAOImpl] (main) In side method >>> getAppConfig
2013-07-30 14:48:57,913 INFO  [org.springframework.jdbc.datasource.SingleConnectionDataSource] (main) Loaded JDBC driver: net.sourceforge.jtds.jdbc.Driver
2013-07-30 14:48:57,913 INFO  [org.springframework.jdbc.datasource.SingleConnectionDataSource] (main) Established shared JDBC Connection: net.sourceforge.jtds.jdbc.ConnectionJDBC3@a0b1cd0
2013-07-30 14:48:57,928 WARN  [org.springframework.jdbc.core.metadata.CallMetaDataContext] (main) Unable to locate the corresponding parameter value for 'ErrorNumber' within the parameter values provided: [ConfigurationType]
2013-07-30 14:48:57,928 WARN  [org.springframework.jdbc.core.metadata.CallMetaDataContext] (main) Unable to locate the corresponding parameter value for 'ErrorMessage' within the parameter values provided: [ConfigurationType]
2013-07-30 14:48:57,944 INFO  [com.scansee.batch.dao.EmailSubscriptionReportDAOImpl] (main)  Exiting method >>> getAppConfig
2013-07-30 14:48:57,944 INFO  [com.scansee.batch.dao.EmailSubscriptionReportDAOImpl] (main) In side method >>> getAppConfig
2013-07-30 14:48:57,944 INFO  [org.springframework.jdbc.datasource.SingleConnectionDataSource] (main) Loaded JDBC driver: net.sourceforge.jtds.jdbc.Driver
2013-07-30 14:48:57,944 INFO  [org.springframework.jdbc.datasource.SingleConnectionDataSource] (main) Established shared JDBC Connection: net.sourceforge.jtds.jdbc.ConnectionJDBC3@3e4a9a7d
2013-07-30 14:48:57,960 WARN  [org.springframework.jdbc.core.metadata.CallMetaDataContext] (main) Unable to locate the corresponding parameter value for 'ErrorNumber' within the parameter values provided: [ConfigurationType]
2013-07-30 14:48:57,960 WARN  [org.springframework.jdbc.core.metadata.CallMetaDataContext] (main) Unable to locate the corresponding parameter value for 'ErrorMessage' within the parameter values provided: [ConfigurationType]
2013-07-30 14:48:57,960 INFO  [com.scansee.batch.dao.EmailSubscriptionReportDAOImpl] (main)  Exiting method >>> getAppConfig
2013-07-30 14:48:57,960 INFO  [com.scansee.batch.common.pojos.EmailComponent] (main) Inside EmailComponent: multipleUsersmailingComponent
2013-07-30 14:49:07,250 INFO  [com.scansee.batch.common.pojos.EmailComponent] (main) Mail Sent successfully
2013-07-30 14:49:07,250 INFO  [com.scansee.batch.common.pojos.EmailComponent] (main) Exit EmailComponent: multipleUsersmailingComponent
2013-07-30 14:49:07,250 INFO  [com.scansee.batch.service.EmailSubscriptionReportServiceImpl] (main)  Exiting method >>> sendBatchProcessStatus
2013-07-30 14:49:07,250 INFO  [com.scansee.batch.service.EmailSubscriptionReportServiceImpl] (main)  Exiting method >>> sendEmailSubscriptionUsersList
2013-07-30 14:49:07,250 INFO  [com.scansee.batch.process.EmailSubscriptionReportMain] (main)  *Email Subscription Repor Batch process Ends  @:Tue Jul 30 14:49:07 IST 2013
2013-07-30 14:49:07,250 INFO  [com.scansee.batch.process.EmailSubscriptionReportMain] (main) ######################################################################
2013-07-30 14:49:43,489 INFO  [com.scansee.batch.process.EmailSubscriptionReportMain] (main) ***************************Email Subscription Repor Batch process started******************************************
2013-07-30 14:49:43,504 INFO  [com.scansee.batch.process.EmailSubscriptionReportMain] (main) Inside Main Method Process Start @:Tue Jul 30 14:49:43 IST 2013
2013-07-30 14:49:43,536 INFO  [com.scansee.batch.service.EmailSubscriptionReportServiceImpl] (main) In side method >>> sendEmailSubscriptionUsersList
2013-07-30 14:49:43,536 INFO  [com.scansee.batch.dao.EmailSubscriptionReportDAOImpl] (main) In side method >>> getEmailSubscribedUsersLists
2013-07-30 14:49:43,583 INFO  [org.springframework.jdbc.datasource.SingleConnectionDataSource] (main) Loaded JDBC driver: net.sourceforge.jtds.jdbc.Driver
2013-07-30 14:49:43,770 INFO  [org.springframework.jdbc.datasource.SingleConnectionDataSource] (main) Established shared JDBC Connection: net.sourceforge.jtds.jdbc.ConnectionJDBC3@70dc57db
2013-07-30 14:49:43,801 WARN  [org.springframework.jdbc.core.metadata.CallMetaDataContext] (main) Unable to locate the corresponding parameter value for 'status' within the parameter values provided: []
2013-07-30 14:49:43,801 WARN  [org.springframework.jdbc.core.metadata.CallMetaDataContext] (main) Unable to locate the corresponding parameter value for 'errornumber' within the parameter values provided: []
2013-07-30 14:49:43,801 WARN  [org.springframework.jdbc.core.metadata.CallMetaDataContext] (main) Unable to locate the corresponding parameter value for 'errormessage' within the parameter values provided: []
2013-07-30 14:49:43,895 INFO  [com.scansee.batch.dao.EmailSubscriptionReportDAOImpl] (main)  Exiting method >>> getEmailSubscribedUsersLists
2013-07-30 14:49:45,675 INFO  [com.scansee.batch.service.EmailSubscriptionReportServiceImpl] (main) In side method >>> writeFileToFTP
2013-07-30 14:49:45,847 INFO  [com.scansee.batch.service.EmailSubscriptionReportServiceImpl] (main) In side method >>> getFTPConnection
2013-07-30 14:49:47,517 INFO  [com.scansee.batch.service.EmailSubscriptionReportServiceImpl] (main) ***FTP connection Established*****
2013-07-30 14:49:47,517 INFO  [com.scansee.batch.service.EmailSubscriptionReportServiceImpl] (main)  Exiting method >>> getFTPConnection
2013-07-30 14:49:50,780 INFO  [com.scansee.batch.service.EmailSubscriptionReportServiceImpl] (main)  Exiting method >>> writeFileToFTP
2013-07-30 14:49:50,780 INFO  [com.scansee.batch.common.Utility] (main) Inside Utility:formEmailBody
2013-07-30 14:49:50,780 INFO  [com.scansee.batch.common.Utility] (main) Exit Utility:formEmailBody
2013-07-30 14:49:50,780 INFO  [com.scansee.batch.service.EmailSubscriptionReportServiceImpl] (main) In side method >>> sendBatchProcessStatus
2013-07-30 14:49:50,796 INFO  [com.scansee.batch.dao.EmailSubscriptionReportDAOImpl] (main) In side method >>> getAppConfig
2013-07-30 14:49:50,796 INFO  [org.springframework.jdbc.datasource.SingleConnectionDataSource] (main) Loaded JDBC driver: net.sourceforge.jtds.jdbc.Driver
2013-07-30 14:49:50,812 INFO  [org.springframework.jdbc.datasource.SingleConnectionDataSource] (main) Established shared JDBC Connection: net.sourceforge.jtds.jdbc.ConnectionJDBC3@5f90a0d6
2013-07-30 14:49:50,827 WARN  [org.springframework.jdbc.core.metadata.CallMetaDataContext] (main) Unable to locate the corresponding parameter value for 'ErrorNumber' within the parameter values provided: [ConfigurationType]
2013-07-30 14:49:50,827 WARN  [org.springframework.jdbc.core.metadata.CallMetaDataContext] (main) Unable to locate the corresponding parameter value for 'ErrorMessage' within the parameter values provided: [ConfigurationType]
2013-07-30 14:49:50,827 INFO  [com.scansee.batch.dao.EmailSubscriptionReportDAOImpl] (main)  Exiting method >>> getAppConfig
2013-07-30 14:49:50,827 INFO  [com.scansee.batch.dao.EmailSubscriptionReportDAOImpl] (main) In side method >>> getAppConfig
2013-07-30 14:49:50,827 INFO  [org.springframework.jdbc.datasource.SingleConnectionDataSource] (main) Loaded JDBC driver: net.sourceforge.jtds.jdbc.Driver
2013-07-30 14:49:50,827 INFO  [org.springframework.jdbc.datasource.SingleConnectionDataSource] (main) Established shared JDBC Connection: net.sourceforge.jtds.jdbc.ConnectionJDBC3@13e4a47e
2013-07-30 14:49:50,843 WARN  [org.springframework.jdbc.core.metadata.CallMetaDataContext] (main) Unable to locate the corresponding parameter value for 'ErrorNumber' within the parameter values provided: [ConfigurationType]
2013-07-30 14:49:50,843 WARN  [org.springframework.jdbc.core.metadata.CallMetaDataContext] (main) Unable to locate the corresponding parameter value for 'ErrorMessage' within the parameter values provided: [ConfigurationType]
2013-07-30 14:49:50,843 INFO  [com.scansee.batch.dao.EmailSubscriptionReportDAOImpl] (main)  Exiting method >>> getAppConfig
2013-07-30 14:49:50,843 INFO  [com.scansee.batch.common.pojos.EmailComponent] (main) Inside EmailComponent: multipleUsersmailingComponent
2013-07-30 14:50:00,102 INFO  [com.scansee.batch.common.pojos.EmailComponent] (main) Mail Sent successfully
2013-07-30 14:50:00,102 INFO  [com.scansee.batch.common.pojos.EmailComponent] (main) Exit EmailComponent: multipleUsersmailingComponent
2013-07-30 14:50:00,102 INFO  [com.scansee.batch.service.EmailSubscriptionReportServiceImpl] (main)  Exiting method >>> sendBatchProcessStatus
2013-07-30 14:50:00,102 INFO  [com.scansee.batch.service.EmailSubscriptionReportServiceImpl] (main)  Exiting method >>> sendEmailSubscriptionUsersList
2013-07-30 14:50:00,102 INFO  [com.scansee.batch.process.EmailSubscriptionReportMain] (main)  *Email Subscription Repor Batch process Ends  @:Tue Jul 30 14:50:00 IST 2013
2013-07-30 14:50:00,102 INFO  [com.scansee.batch.process.EmailSubscriptionReportMain] (main) ######################################################################
